[
  {
    "art": "Bachelorarbeit",
    "thema": "Building Information Modelling (BIM): Verknüpfung des 3D- Modells eines Brückenbauwerks der DB AG mit der Bauablaufplanung zum 4D-Modell"
  },
  {
    "art": "Bachelorarbeit",
    "thema": "Untersuchung zur BIM- Anwendung in der  Bewehrungsplanung"
  },
  {
    "art": "Bachelorarbeit",
    "thema": "Untersuchung zur BIM- Anwendung in der Tragwerksplanung"
  },
  {
    "art": "Bachelorarbeit",
    "thema": "Abwicklung der Schnittstelle zwischen RIB iTWO und Revit im BIM im Bahnbau"
  },
  {
    "art": "Bachelorarbeit",
    "thema": "Untersuchungen zur Building Information Modeling (BIM)-Anwendung in der Tragwerksplanung"
  },
  {
    "art": "Bachelorarbeit",
    "thema": "Untersuchung zur Umstellung  auf BIM – gerechte Arbeitsweise in der Planung von Ingenieur- und Infrastrukturbauten"
  },
  {
    "art": "Bachelorthesis",
    "thema": "Integrale Planung als modernes Instrument des Generalplaners"
  },
  {
    "art": "Bachelorthesis",
    "thema": "Untersuchung zur BIM- Anwendung in der Tragwerksplanung"
  },
  {
    "art": "Bachelorthesis",
    "thema": "BIM – Analyse der IFC-Schnittstelle zwischen ArchiCAD und ORCA AVA / Rib-iTWO"
  },
  {
    "art": "Bachelorthesis",
    "thema": "Untersuchung der Möglichkeiten eines intelligenten 3D-Modells im Zusammenhang mit energetischer Gebäudeoptimierung"
  },
  {
    "art": "Bachelorthesis",
    "thema": "Projektmanagement im Bahnbau, eine Untersuchung von neuen Planungs-/Arbeitsmethoden im Projekt-/Baumanagement anhand eines Beispielprojektes und ein Ausblick auf die zukünftige Projektsteuerung im Bahnbau mittels BIM"
  },
  {
    "art": "Bachelorthesis",
    "thema": "Untersuchung zu BIM - Anwendung im Bereich Facility Management"
  },
  {
    "art": "Bachelorthesis",
    "thema": "BIM-gerechtes Planen – Ein Leitfaden zur Modellage in Allplan anhand eines Übungsprojektes"
  },
  {
    "art": "Diplomarbeit",
    "thema": "Integration der BIM-Arbeitsmethode in die Planung und Ausführung von Alu-Glas-Fassaden"
  },
  {
    "art": "Hausarbeit (Master Bauing. - AK Bauproduktionstechnik)",
    "thema": "BIM – Aufbruch in die digitale Welt der Planung"
  },
  {
    "art": "Internationales Bauen",
    "thema": "BIM.5D"
  },
  {
    "art": "Masterthesis",
    "thema": "Implementierungsmöglichkeiten von BIM"
  },
  {
    "art": "Masterthesis",
    "thema": "Untersuchungen zur ganzheitlichen Modellierung von Tragwerken als räumliche FE-Struktur"
  },
  {
    "art": "Masterthesis",
    "thema": "Untersuchungen des Workflows BIM-basierter Planungsvorgänge"
  },
  {
    "art": "Masterthesis",
    "thema": "Nutzung von BIM im Projektverlauf - Entwicklungsstand und Einsatzgrenzen in der Firmengruppe Max Bögl am Beispiel eines Großprojektes"
  },
  {
    "art": "Masterthesis",
    "thema": "Building Information Modeling (BIM) -prozesse in der Bauprojektabwicklung"
  },
  {
    "art": "Masterthesis",
    "thema": "Anforderungen von Bauunternehmen für die Ausbildung von BIM im Lehrbereich Baubetrieb und Bauwirtschaft und Erarbeitung von Lösungsansätzen für den Masterstudiengang der HTWK"
  },
  {
    "art": "Masterthesis",
    "thema": "Untersuchungen zur Anwendung der BIM – Methode bei der Modellierung und Bemessung einer Fachwerkbrücke in Stahlbauweise"
  },
  {
    "art": "Masterthesis",
    "thema": "Konflikt zwischen Auftraggeber und Planer - was sind die AIA und das BAP"
  },
  {
    "art": "Masterthesis",
    "thema": "BIM in der studentischen Ausbildung für Bauwirtschaft/Baubetrieb"
  },
  {
    "art": "Masterthesis",
    "thema": "Digitalisierung im Bauwesen - Potenziale des softwarebasierten Mängelmanagements anhand eines Praxisbeispiels"
  },
  {
    "art": "Masterthesis",
    "thema": "BIM-basierte Terminplanung in der Angebotsphase bei der Implenia Hochbau GmbH"
  },
  {
    "art": "Masterthesis",
    "thema": "Digitalisierung im Bauwesen - strategische und operative Umsetzung von BIM im Tiefbau"
  },
  {
    "art": "Masterthesis",
    "thema": "BIM-basierte Entwurfsplanung einer energetisch optimierten Kindertagesstätte in Leipzig"
  },
  {
    "art": "Masterthesis",
    "thema": "Die Veränderung des Leistungsbildes der Projektsteuerung durch die Anwendung der BIM-Methoden"
  },
  {
    "art": "Masterthesis",
    "thema": "Herausforderung eines individuellen, bauseitigen Kostengliederung bei Aufrechterhaltung der Standards für die BIM-Anwendung bei einem Baudienstleister im Hochbau"
  },
  {
    "art": "Masterthesis",
    "thema": "Entwicklung von Maßnahmen zur Implementierung von BIM im Verkehrswegebau anhand Pilotbaustellen 'Umbau PWC-Anlage Kesselberg Los 1+2' und der 'Deichbaumaßnahme Püchau-Grubnitz'"
  },
  {
    "art": "Masterthesis",
    "thema": "Building Information Modeling im Erd- & Tiefbau"
  },
  {
    "art": "Masterthesis",
    "thema": "BIM im Erd- und Straßenbau – Leistungsphase 5"
  },
  {
    "art": "Masterthesis",
    "thema": "Untersuchung der IFC-Schnittstelle für den Open BIM-Planungsprozess am Beispiel einer Kraft-Wärme-Kopplungsanlage sowie Möglichkeiten der Bauablaufsimulation für die 4D-Implementierung von BIM bei der IPROconsult GmbH"
  },
  {
    "art": "Masterthesis",
    "thema": "Untersuchung zum openBIM-orientierten Datenaustausch zwischen digitaler Gebäudemodellierung und Tragwerksplanung"
  },
  {
    "art": "Masterthesis",
    "thema": "Einführung der BIM-Methodik zur Planung von Bahnübergangsanpassungen"
  },
  {
    "art": "Masterthesis",
    "thema": "'Building Information Modeling Objekte (BIM) Objekte' Bewertung der Einsatzmöglichkeiten von BIM Objekten an einem Praxisbeispiel"
  },
  {
    "art": "Masterthesis",
    "thema": "Building Information Modeling im Bestand. Erarbeitung einer Prozesskette für die Erstellung eines BIM - Modells und Anwendung auf ein Beispielgebäude der DB Immobilien"
  },
  {
    "art": "Masterthesis",
    "thema": "Integration der BIM-Methode in traditionelle und alternative Projektabwicklungssysteme"
  },
  {
    "art": "Masterthesis",
    "thema": "Untersuchungen zur BIM – Anwendung in der Bestandserfassung von Brücken und Ingenieurbauwerken"
  },
  {
    "art": "Masterthesis",
    "thema": "Untersuchungen zur BIM – Anwendung in der Entwurfsplanung von Brückenbauwerken"
  },
  {
    "art": "Projektarbeit",
    "thema": "Digitalisierung im Bauwesen"
  },
  {
    "art": "Projektarbeit",
    "thema": "BIM – Der Weg zur wirtschaftlichen Planung?"
  },
  {
    "art": "Projektarbeit",
    "thema": "BIM – Der Einfluss auf den konventionellen Planungsprozess"
  },
  {
    "art": "Projektarbeit",
    "thema": "Potenziale des Einsatzes von BIM in der Bau- und Immobilienwirtschaft"
  },
  {
    "art": "Projektarbeit",
    "thema": "Einsatz der BIM-Methode in der deutschen Bauwirtschaft"
  },
  {
    "art": "Projektarbeit",
    "thema": "Potenziale der Digitalisierungstrends der Bauwirtschaft für das ökologische Bauen"
  },
  {
    "art": "Projektarbeit",
    "thema": "Sachstand von BIM und Implementierung der Methode in den Infrastruktursektor Deutschlands"
  },
  {
    "art": "Projektarbeit AK BPT",
    "thema": "BIM - aktueller Stand im In- und Ausland"
  },
  {
    "art": "Projektarbeit Bauwirtschaft/Baubetrieb I",
    "thema": "Building Information Modeling "
  },
  {
    "art": "Projektarbeit Bauwirtschaft/Baubetrieb I",
    "thema": "BIM Simulation eines aktuellen Neubauprojektes in der Rohbauphase"
  },
  {
    "art": "Projektarbeit Bauwirtschaft/Baubetrieb I",
    "thema": "Stakeholder-Management - mittels VR-Brille das Baufeld erleben"
  },
  {
    "art": "Projektarbeit Bauwirtschaft/Baubetrieb II",
    "thema": "Building Information Modeling in Deutschland"
  },
  {
    "art": "Projektarbeit Bauwirtschaft/Baubetrieb II",
    "thema": "Building Information Modeling"
  }
]
