[
  {
    "autor": "Deutsche Bahn AG BD Immobilien",
    "thema": "Building Information Modeling im Bestand – Erarbeitung einer Prozesskette und Anwendung auf ein Beispielgebäude der DB Deutsche Bahn AG BD Immobilien"
  },
  {
    "autor": "Università degli Studi di Napoli Federico II Italien",
    "thema": "Innovation in Architecture design and Construction: Technological Environmental Design and Building Information Modeling"
  },
  {
    "autor": "Nachwuchsforschergruppe DigiTransSachs",
    "thema": "Digitale Transformationsprozesse in der sächsischen Wirtschaft"
  },
  {
    "autor": "Doktorarbeit",
    "thema": "The application of the BIM methodology for existing buildings: innovative procedures, methods, instruments and technologies for the digitalization of the built environment"
  },
  {
    "autor": "Doktorarbeit",
    "thema": "Digital processes for managing responsive building. A comparison between German and Italian environmental energy policies"
  },
  {
    "autor": "Doktorarbeit",
    "thema": "Paradigmenwechsel in der Bauverwaltung? Potenziale des Building Information Modeling (BIM) für parameter-basierte und digitalisierte Verfahren in der Bauverwaltung"
  }
]
