{
  "features": [
    {
      "type": "Feature",
      "properties": {
        "description": "Slovak University of Technology",
        "Bauingenieurwesen (Bachelor)": "",
        "Bauingenieurwesen (Master)": "",
        "Bauingenieurwesen kooperativ (Bachelor)": ""
      },
      "geometry": {
        "coordinates": [17.098829, 48.133537],
        "type": "Point"
      },
      "id": "01505a3a4280ef2f3e5416c84b16bd02"
    },
    {
      "type": "Feature",
      "properties": {
        "description": "Edinburgh Napier University",
        "Wirtschaftsingenieurwesen Bauwesen (Bachelor)": "",
        "Wirtschaftsingenieurwesen Bauwesen (Master)": ""
      },
      "geometry": {
        "coordinates": [-3.214959, 55.935721],
        "type": "Point"
      },
      "id": "072e95f2f4f192fb189a1ab7d8984bec"
    },
    {
      "type": "Feature",
      "properties": {
        "description": "Technical University of Ostrava"
      },
      "geometry": {
        "coordinates": [14.255666, 40.844898],
        "type": "Point"
      },
      "id": "0a095dd71a5808f296f25daf6ac2aacb"
    },
    {
      "type": "Feature",
      "properties": {
        "description": "National Technical University of Ukraine, \"Igor Sikorsky Kyiv Polytechnic Institute\"",
        "Bauingenieurwesen (Bachelor)": "",
        "Bauingenieurwesen (Master)": "",
        "Bauingenieurwesen kooperativ (Bachelor)": "",
        "Wirtschaftsingenieurwesen Bauwesen (Bachelor)": "",
        "Wirtschaftsingenieurwesen Bauwesen (Master)": ""
      },
      "geometry": {
        "coordinates": [30.55099, 50.457861],
        "type": "Point"
      },
      "id": "105601609ed136d9bf9a41eed0ac7ec8"
    },
    {
      "type": "Feature",
      "properties": {
        "description": "South-Eastern Finaland University of Applied Sciences"
      },
      "geometry": {
        "coordinates": [27.739535, 62.864612],
        "type": "Point"
      },
      "id": "10f55b733f93a864b48b8d9d19cf478f"
    },
    {
      "type": "Feature",
      "properties": {
        "description": "Jiangxi University of Science and Technology",
        "Bauingenieurwesen (Bachelor)": "",
        "Bauingenieurwesen (Master)": "",
        "Bauingenieurwesen kooperativ (Bachelor)": ""
      },
      "geometry": {
        "coordinates": [115.555992, 27.51385],
        "type": "Point"
      },
      "id": "115af0c0d482102bff9e45c654ea2278"
    },
    {
      "type": "Feature",
      "properties": {
        "description": "Orenburg State University",
        "Bauingenieurwesen (Bachelor)": "",
        "Bauingenieurwesen (Master)": "",
        "Bauingenieurwesen kooperativ (Bachelor)": "",
        "Wirtschaftsingenieurwesen Bauwesen (Bachelor)": "",
        "Wirtschaftsingenieurwesen Bauwesen (Master)": ""
      },
      "geometry": {
        "coordinates": [55.116734, 51.742342],
        "type": "Point"
      },
      "id": "14edbb90d3fd8f241f24dfa816ea65c6"
    },
    {
      "type": "Feature",
      "properties": {
        "description": "University of Chemistry and Technology Prague"
      },
      "geometry": {
        "coordinates": [14.41929, 50.104909],
        "type": "Point"
      },
      "id": "15aa2780663d4090067085744247d0c5"
    },
    {
      "type": "Feature",
      "properties": {
        "description": "Ho Chi Minh City University of Transport (UT_HCMC)",
        "Bauingenieurwesen (Bachelor)": "",
        "Bauingenieurwesen (Master)": "",
        "Bauingenieurwesen kooperativ (Bachelor)": ""
      },
      "geometry": {
        "coordinates": [106.742825, 10.742779],
        "type": "Point"
      },
      "id": "1ad85516fedf003f97d3e83230b37a09"
    },
    {
      "type": "Feature",
      "properties": {
        "description": "University of Ljubljana",
        "Bauingenieurwesen (Bachelor)": "",
        "Bauingenieurwesen (Master)": "",
        "Bauingenieurwesen kooperativ (Bachelor)": ""
      },
      "geometry": {
        "coordinates": [14.510981, 46.052301],
        "type": "Point"
      },
      "id": "1b228c69cf605ed6654d4d7573e95c39"
    },
    {
      "type": "Feature",
      "properties": {
        "description": "Kaunas University of Technology"
      },
      "geometry": {
        "coordinates": [23.898212, 54.908111],
        "type": "Point"
      },
      "id": "1e2cd26c484e44bc2dbd76c4d4b3df40"
    },
    {
      "type": "Feature",
      "properties": {
        "description": "Ecole Superieure en Travail Educatif et Social"
      },
      "geometry": {
        "coordinates": [7.741663, 48.580182],
        "type": "Point"
      },
      "id": "20364fa78c93606ecb2341fb2917f621"
    },
    {
      "type": "Feature",
      "properties": {
        "description": "cole Nationale d'Electronique et des Télécommunications de Sfax "
      },
      "geometry": {
        "coordinates": [10.740186, 34.745511],
        "type": "Point"
      },
      "id": "213b45121cb82ce3381707baa9630c28"
    },
    {
      "type": "Feature",
      "properties": {
        "description": "National University of Civil Engineering (NUCE)",
        "Bauingenieurwesen (Bachelor)": "",
        "Bauingenieurwesen (Master)": "",
        "Bauingenieurwesen kooperativ (Bachelor)": ""
      },
      "geometry": {
        "coordinates": [105.903136, 21.013956],
        "type": "Point"
      },
      "id": "214728b0cae108f06330edcfb9ae3ede"
    },
    {
      "type": "Feature",
      "properties": {
        "description": "Uganda Christian University",
        "Bauingenieurwesen (Bachelor)": "",
        "Bauingenieurwesen (Master)": "",
        "Bauingenieurwesen kooperativ (Bachelor)": "",
        "Wirtschaftsingenieurwesen Bauwesen (Bachelor)": "",
        "Wirtschaftsingenieurwesen Bauwesen (Master)": ""
      },
      "geometry": {
        "coordinates": [32.60725, 0.25422],
        "type": "Point"
      },
      "id": "217bdb1d54ce8dd0c68bfb08e07cd698"
    },
    {
      "type": "Feature",
      "properties": {
        "description": "Poltava National Technical Yuriy Kondratyuk University",
        "Bauingenieurwesen (Bachelor)": "",
        "Bauingenieurwesen (Master)": "",
        "Bauingenieurwesen kooperativ (Bachelor)": ""
      },
      "geometry": {
        "coordinates": [34.537056, 49.601965],
        "type": "Point"
      },
      "id": "22c90d12656535a2e5445ca1946947b0"
    },
    {
      "type": "Feature",
      "properties": {
        "description": "Moscow State University of Civil Engineering (MSGU)",
        "Bauingenieurwesen (Bachelor)": "",
        "Bauingenieurwesen (Master)": "",
        "Bauingenieurwesen kooperativ (Bachelor)": ""
      },
      "geometry": {
        "coordinates": [37.61982, 55.718009],
        "type": "Point"
      },
      "id": "239dc976a54ea99fabe4c83d432591fb"
    },
    {
      "type": "Feature",
      "properties": {
        "description": "Universite degi Studi Roma Tre"
      },
      "geometry": {
        "coordinates": [12.48103, 41.898523],
        "type": "Point"
      },
      "id": "263707af465747579eb2358a8558033c"
    },
    {
      "type": "Feature",
      "properties": {
        "description": "Moscow Polytechnic University (früher: Moskow State University of Printing Arts of Ivan Federov",
        "Bauingenieurwesen (Bachelor)": "",
        "Bauingenieurwesen (Master)": "",
        "Bauingenieurwesen kooperativ (Bachelor)": "",
        "Wirtschaftsingenieurwesen Bauwesen (Bachelor)": "",
        "Wirtschaftsingenieurwesen Bauwesen (Master)": ""
      },
      "geometry": {
        "coordinates": [37.61014, 55.734362],
        "type": "Point"
      },
      "id": "278a71d4e0b4409fba344ae2dd13d849"
    },
    {
      "type": "Feature",
      "properties": {
        "description": "Vilinus University"
      },
      "geometry": {
        "coordinates": [25.28036, 54.676597],
        "type": "Point"
      },
      "id": "29266c5c911f8b67eba476b513070382"
    },
    {
      "type": "Feature",
      "properties": {
        "description": "University of Florence",
        "Bauingenieurwesen (Bachelor)": "",
        "Bauingenieurwesen (Master)": "",
        "Bauingenieurwesen kooperativ (Bachelor)": ""
      },
      "geometry": {
        "coordinates": [11.25829, 43.776392],
        "type": "Point"
      },
      "id": "2b4749257f883f52f1179047c5350030"
    },
    {
      "type": "Feature",
      "properties": {
        "description": "Warsaw University of Technology"
      },
      "geometry": {
        "coordinates": [20.997407, 52.244363],
        "type": "Point"
      },
      "id": "2b89dd55b98d1ef0a869c3dad4a102db"
    },
    {
      "type": "Feature",
      "properties": {
        "description": "Tuvan State University",
        "Bauingenieurwesen (Bachelor)": "",
        "Bauingenieurwesen (Master)": "",
        "Bauingenieurwesen kooperativ (Bachelor)": "",
        "Wirtschaftsingenieurwesen Bauwesen (Bachelor)": "",
        "Wirtschaftsingenieurwesen Bauwesen (Master)": ""
      },
      "geometry": {
        "coordinates": [94.390767, 51.695344],
        "type": "Point"
      },
      "id": "2e99ec93bbc0183ed15fdccb9a665fbf"
    },
    {
      "type": "Feature",
      "properties": {
        "description": "Helsinki Metropolia University of Applied Sciences"
      },
      "geometry": {
        "coordinates": [24.938644, 60.166045],
        "type": "Point"
      },
      "id": "33ece5e6f4ec9f2d5d9c0e2c22aa8bee"
    },
    {
      "type": "Feature",
      "properties": {
        "description": "Jiaxing University",
        "Bauingenieurwesen (Bachelor)": "",
        "Bauingenieurwesen (Master)": "",
        "Bauingenieurwesen kooperativ (Bachelor)": ""
      },
      "geometry": {
        "coordinates": [120.758382, 30.753526],
        "type": "Point"
      },
      "id": "368655901338c93be46612e55487e14c"
    },
    {
      "type": "Feature",
      "properties": {
        "description": "Nanjing Technology University"
      },
      "geometry": {
        "coordinates": [118.749172, 32.044706],
        "type": "Point"
      },
      "id": "36b24988b59450acc5d248320f30bf2e"
    },
    {
      "type": "Feature",
      "properties": {
        "description": "Al Baath University",
        "Bauingenieurwesen (Bachelor)": "",
        "Bauingenieurwesen (Master)": "",
        "Bauingenieurwesen kooperativ (Bachelor)": ""
      },
      "geometry": {
        "coordinates": [36.710129, 34.730598],
        "type": "Point"
      },
      "id": "390dc59afec6d42f5f01d31421b70d8a"
    },
    {
      "type": "Feature",
      "properties": {
        "description": "Szent Istvan University",
        "Bauingenieurwesen (Bachelor)": "",
        "Bauingenieurwesen (Master)": "",
        "Bauingenieurwesen kooperativ (Bachelor)": ""
      },
      "geometry": {
        "coordinates": [19.69573, 47.674066],
        "type": "Point"
      },
      "id": "3c809fa7a0157c430026ddf45c841985"
    },
    {
      "type": "Feature",
      "properties": {
        "description": "Seinäjoki University of Applied Sciences",
        "Bauingenieurwesen (Bachelor)": "",
        "Bauingenieurwesen (Master)": "",
        "Bauingenieurwesen kooperativ (Bachelor)": "",
        "Wirtschaftsingenieurwesen Bauwesen (Bachelor)": "",
        "Wirtschaftsingenieurwesen Bauwesen (Master)": ""
      },
      "geometry": {
        "coordinates": [22.82227, 62.789731],
        "type": "Point"
      },
      "id": "3d19ba64a0e8591daf75a15d9213ba19"
    },
    {
      "type": "Feature",
      "properties": {
        "description": "University of Bolton",
        "Wirtschaftsingenieurwesen Bauwesen (Bachelor)": "",
        "Wirtschaftsingenieurwesen Bauwesen (Master)": ""
      },
      "geometry": {
        "coordinates": [-2.436356, 53.573573],
        "type": "Point"
      },
      "id": "3d904592b8de4b646516f18f15877309"
    },
    {
      "type": "Feature",
      "properties": {
        "description": "Duhok Polytechnic University"
      },
      "geometry": {
        "coordinates": [43.095592, 36.709256],
        "type": "Point"
      },
      "id": "3e9762e4b487d401bd6d94b89fbc4036"
    },
    {
      "type": "Feature",
      "properties": {
        "description": "University of Cadiz"
      },
      "geometry": {
        "coordinates": [-6.286172, 36.523663],
        "type": "Point"
      },
      "id": "3f8ed4904e04bcbd681344d0a73bc0e2"
    },
    {
      "type": "Feature",
      "properties": {
        "description": "FH Campus Wien",
        "Bauingenieurwesen (Bachelor)": "",
        "Bauingenieurwesen (Master)": "",
        "Bauingenieurwesen kooperativ (Bachelor)": ""
      },
      "geometry": {
        "coordinates": [16.346081, 48.211462],
        "type": "Point"
      },
      "id": "3f9997c8093c7ecf130ed0f4d37e00b2"
    },
    {
      "type": "Feature",
      "properties": {
        "description": "Jiangsu University of Science and Technology (JUST)",
        "Bauingenieurwesen (Bachelor)": "",
        "Bauingenieurwesen (Master)": "",
        "Bauingenieurwesen kooperativ (Bachelor)": "",
        "Wirtschaftsingenieurwesen Bauwesen (Bachelor)": "",
        "Wirtschaftsingenieurwesen Bauwesen (Master)": ""
      },
      "geometry": {
        "coordinates": [119.465232, 32.209585],
        "type": "Point"
      },
      "id": "4765d873fb7f385ddc5e85ce2ce0fa22"
    },
    {
      "type": "Feature",
      "properties": {
        "description": "HEG-GE Haute Ecole de Gestion de Geneve",
        "Wirtschaftsingenieurwesen Bauwesen (Bachelor)": "",
        "Wirtschaftsingenieurwesen Bauwesen (Master)": ""
      },
      "geometry": {
        "coordinates": [6.153114, 46.194343],
        "type": "Point"
      },
      "id": "47696f8a7fb79845f611bdffb739863f"
    },
    {
      "type": "Feature",
      "properties": {
        "description": "Universite Jean Monnet St. Etienne (IUT)",
        "Wirtschaftsingenieurwesen Bauwesen (Bachelor)": "",
        "Wirtschaftsingenieurwesen Bauwesen (Master)": ""
      },
      "geometry": {
        "coordinates": [4.386524, 45.426765],
        "type": "Point"
      },
      "id": "47c43a2a882a35e836a63f03e31acfec"
    },
    {
      "type": "Feature",
      "properties": {
        "description": "Universite de Lorraine - IUT Nancy-Brabois",
        "Bauingenieurwesen (Bachelor)": "",
        "Bauingenieurwesen (Master)": "",
        "Bauingenieurwesen kooperativ (Bachelor)": "",
        "Wirtschaftsingenieurwesen Bauwesen (Bachelor)": "",
        "Wirtschaftsingenieurwesen Bauwesen (Master)": ""
      },
      "geometry": {
        "coordinates": [6.20459, 48.677662],
        "type": "Point"
      },
      "id": "492bfe38b04118c4c486be7bb28140cb"
    },
    {
      "type": "Feature",
      "properties": {
        "description": "University of Prishtina \"Hasan Prishtina\" - Faculty of Civil Engineering and Architecture Prishtine",
        "Bauingenieurwesen (Bachelor)": "",
        "Bauingenieurwesen (Master)": "",
        "Bauingenieurwesen kooperativ (Bachelor)": ""
      },
      "geometry": {
        "coordinates": [21.164594, 42.671185],
        "type": "Point"
      },
      "id": "4a488bdd19846d8621ab20f23a4c08d3"
    },
    {
      "type": "Feature",
      "properties": {
        "description": "Karel de Grote University College"
      },
      "geometry": {
        "coordinates": [4.411453, 51.245131],
        "type": "Point"
      },
      "id": "4c0f4d9249f736f6a45bf8925571937e"
    },
    {
      "type": "Feature",
      "properties": {
        "description": "Far Earstern Federal University"
      },
      "geometry": {
        "coordinates": [131.879376, 43.052581],
        "type": "Point"
      },
      "id": "4dfff0cd90ba55e4e3586e4c2d03b15e"
    },
    {
      "type": "Feature",
      "properties": {
        "description": "NTNU Gjøvik"
      },
      "geometry": {
        "coordinates": [10.805318, 60.910139],
        "type": "Point"
      },
      "id": "4ebb2692a64b9a6fa0fd061a68fb729c"
    },
    {
      "type": "Feature",
      "properties": {
        "description": "University of Camerino"
      },
      "geometry": {
        "coordinates": [13.074604, 43.132327],
        "type": "Point"
      },
      "id": "4ebd965c8a6e2d98cf653d8581f948bb"
    },
    {
      "type": "Feature",
      "properties": {
        "description": "University of Baghdad"
      },
      "geometry": {
        "coordinates": [44.358598, 33.315046],
        "type": "Point"
      },
      "id": "544fdd85c20a86cd77510ccfecc0f6f2"
    },
    {
      "type": "Feature",
      "properties": {
        "description": "National Academy of Theatre and Film Arts (NAFTA)"
      },
      "geometry": {
        "coordinates": [23.292319, 42.66373],
        "type": "Point"
      },
      "id": "55cd2b0a09dd01c0c78d52d9ffca9ac1"
    },
    {
      "type": "Feature",
      "properties": {
        "description": "University of Cassino and Southern Lazio",
        "Wirtschaftsingenieurwesen Bauwesen (Bachelor)": "",
        "Wirtschaftsingenieurwesen Bauwesen (Master)": ""
      },
      "geometry": {
        "coordinates": [13.830286, 41.485279],
        "type": "Point"
      },
      "id": "5715a81ed82776afbde15c7562c99130"
    },
    {
      "type": "Feature",
      "properties": {
        "description": "Universite of Catholique de Lille",
        "Wirtschaftsingenieurwesen Bauwesen (Bachelor)": ""
      },
      "geometry": {
        "coordinates": [3.073767, 50.631545],
        "type": "Point"
      },
      "id": "5ac193625b2672db12c55f8615ba970e"
    },
    {
      "type": "Feature",
      "properties": {
        "description": "University of A Coruña",
        "Wirtschaftsingenieurwesen Bauwesen (Bachelor)": "",
        "Wirtschaftsingenieurwesen Bauwesen (Master)": ""
      },
      "geometry": {
        "coordinates": [-8.411527, 43.332876],
        "type": "Point"
      },
      "id": "5c1d4eebcd527f0e8e8b6bae333bc566"
    },
    {
      "type": "Feature",
      "properties": {
        "description": "Univeritat Jaume I",
        "Wirtschaftsingenieurwesen Bauwesen (Bachelor)": "",
        "Wirtschaftsingenieurwesen Bauwesen (Master)": ""
      },
      "geometry": {
        "coordinates": [1.546185, 41.303531],
        "type": "Point"
      },
      "id": "6098cff1befd819a505c84286a7341d6"
    },
    {
      "type": "Feature",
      "properties": {
        "description": "Ferghana State University"
      },
      "geometry": {
        "coordinates": [64.220712, 41.602198],
        "type": "Point"
      },
      "id": "60daaf75c993a3450828155dd54882ec"
    },
    {
      "type": "Feature",
      "properties": {
        "description": "Arab International University",
        "Bauingenieurwesen (Bachelor)": "",
        "Bauingenieurwesen (Master)": "",
        "Bauingenieurwesen kooperativ (Bachelor)": ""
      },
      "geometry": {
        "coordinates": [36.309857, 33.512521],
        "type": "Point"
      },
      "id": "630ddeaec43840ca316f1f450d2c27b9"
    },
    {
      "type": "Feature",
      "properties": {
        "description": "Budapest University of Technology and Economics"
      },
      "geometry": {
        "coordinates": [19.024258, 47.50663],
        "type": "Point"
      },
      "id": "65b5fdb4088a193b3e28753e3341ec0c"
    },
    {
      "type": "Feature",
      "properties": {
        "description": "Obuda University"
      },
      "geometry": {
        "coordinates": [19.005749, 47.522256],
        "type": "Point"
      },
      "id": "68e34347ebb41e40a5033c88846c5eb8"
    },
    {
      "type": "Feature",
      "properties": {
        "description": "Universite Francois Rabelais de Tours",
        "Wirtschaftsingenieurwesen Bauwesen (Bachelor)": ""
      },
      "geometry": {
        "coordinates": [0.674694, 47.385068],
        "type": "Point"
      },
      "id": "70bb908eb8cbba1c5f748e8c17d1c7b2"
    },
    {
      "type": "Feature",
      "properties": {
        "description": "Kwame Nkrumah University of Science and Technology",
        "Bauingenieurwesen (Bachelor)": "",
        "Bauingenieurwesen (Master)": "",
        "Bauingenieurwesen kooperativ (Bachelor)": ""
      },
      "geometry": {
        "coordinates": [-1.682505, 6.2146],
        "type": "Point"
      },
      "id": "71013813ed8bb246d8c0aa0491c9434f"
    },
    {
      "type": "Feature",
      "properties": {
        "description": "Université de Caen"
      },
      "geometry": {
        "coordinates": [-0.389938, 49.188883],
        "type": "Point"
      },
      "id": "71cf845420402de94f5ff7acad85d83a"
    },
    {
      "type": "Feature",
      "properties": {
        "description": "Riga Technical University",
        "Wirtschaftsingenieurwesen Bauwesen (Bachelor)": "",
        "Wirtschaftsingenieurwesen Bauwesen (Master)": ""
      },
      "geometry": {
        "coordinates": [24.101868, 56.947872],
        "type": "Point"
      },
      "id": "742faf2828da30245397fbf6fb90eb45"
    },
    {
      "type": "Feature",
      "properties": {
        "description": "Babes-Bolyai University Clui-Napoca",
        "Wirtschaftsingenieurwesen Bauwesen (Bachelor)": "",
        "Wirtschaftsingenieurwesen Bauwesen (Master)": ""
      },
      "geometry": {
        "coordinates": [23.592425, 46.781277],
        "type": "Point"
      },
      "id": "74f2dc5031f8e3c4975dc265b1ab5f9b"
    },
    {
      "type": "Feature",
      "properties": {
        "description": "University of National and World Economy",
        "Wirtschaftsingenieurwesen Bauwesen (Bachelor)": "",
        "Wirtschaftsingenieurwesen Bauwesen (Master)": ""
      },
      "geometry": {
        "coordinates": [23.253383, 42.720966],
        "type": "Point"
      },
      "id": "75a7b9f1085a0ca693d34408aebafc90"
    },
    {
      "type": "Feature",
      "properties": {
        "description": "Nagoya City University",
        "Bauingenieurwesen (Bachelor)": "",
        "Bauingenieurwesen (Master)": "",
        "Bauingenieurwesen kooperativ (Bachelor)": "",
        "Wirtschaftsingenieurwesen Bauwesen (Bachelor)": "",
        "Wirtschaftsingenieurwesen Bauwesen (Master)": ""
      },
      "geometry": {
        "coordinates": [136.898019, 35.152755],
        "type": "Point"
      },
      "id": "77bb004116b7c53e62d858db1ed87ba5"
    },
    {
      "type": "Feature",
      "properties": {
        "description": "University of the Basque Country"
      },
      "geometry": {
        "coordinates": [-2.980868, 43.334636],
        "type": "Point"
      },
      "id": "7859845c176f1d4e101b6c0abc93460b"
    },
    {
      "type": "Feature",
      "properties": {
        "description": "University of West Scotland",
        "Bauingenieurwesen (Bachelor)": "",
        "Bauingenieurwesen (Master)": "",
        "Bauingenieurwesen kooperativ (Bachelor)": "",
        "Wirtschaftsingenieurwesen Bauwesen (Bachelor)": ""
      },
      "geometry": {
        "coordinates": [-4.430062, 55.843439],
        "type": "Point"
      },
      "id": "78789e5a7cd5155dbf993b5c74affae8"
    },
    {
      "type": "Feature",
      "properties": {
        "description": "Ege University",
        "Wirtschaftsingenieurwesen Bauwesen (Bachelor)": "",
        "Wirtschaftsingenieurwesen Bauwesen (Master)": ""
      },
      "geometry": {
        "coordinates": [27.244569, 38.512978],
        "type": "Point"
      },
      "id": "7ba1cdb3cd6e550a642a0367d18c5eef"
    },
    {
      "type": "Feature",
      "properties": {
        "description": "Reinwardt Academy"
      },
      "geometry": {
        "coordinates": [4.930481, 52.361883],
        "type": "Point"
      },
      "id": "7c3c01e126da55d28a7a17f7bf5632b4"
    },
    {
      "type": "Feature",
      "properties": {
        "description": "Universite de Bourgogne - Dijon (Espe - Institut Denis Diderot)"
      },
      "geometry": {
        "coordinates": [5.035436, 47.315898],
        "type": "Point"
      },
      "id": "7d2302762f17c6e62498d19f0485465f"
    },
    {
      "type": "Feature",
      "properties": {
        "description": "Mientrung University of Civil Engineering",
        "Bauingenieurwesen (Bachelor)": "",
        "Bauingenieurwesen (Master)": "",
        "Bauingenieurwesen kooperativ (Bachelor)": ""
      },
      "geometry": {
        "coordinates": [109.25092, 13.076719],
        "type": "Point"
      },
      "id": "7da88d91ce76002a2e66f97778367c3c"
    },
    {
      "type": "Feature",
      "properties": {
        "description": "Polotsk State University",
        "Bauingenieurwesen (Bachelor)": "",
        "Bauingenieurwesen (Master)": "",
        "Bauingenieurwesen kooperativ (Bachelor)": "",
        "Wirtschaftsingenieurwesen Bauwesen (Bachelor)": "",
        "Wirtschaftsingenieurwesen Bauwesen (Master)": ""
      },
      "geometry": {
        "coordinates": [28.768333, 55.486953],
        "type": "Point"
      },
      "id": "825233746c26b35f7e308f38bd1c7eb7"
    },
    {
      "type": "Feature",
      "properties": {
        "description": "Platov South- Russian State Polytechnic University (NPI), Novocherkassk",
        "Bauingenieurwesen (Bachelor)": "",
        "Bauingenieurwesen (Master)": "",
        "Bauingenieurwesen kooperativ (Bachelor)": "",
        "Wirtschaftsingenieurwesen Bauwesen (Bachelor)": "",
        "Wirtschaftsingenieurwesen Bauwesen (Master)": ""
      },
      "geometry": {
        "coordinates": [40.10105, 47.409823],
        "type": "Point"
      },
      "id": "83a42fba938c7f7e8ebf42adf27e0061"
    },
    {
      "type": "Feature",
      "properties": {
        "description": "Saint Petersburg State University of Technology and Design",
        "Wirtschaftsingenieurwesen Bauwesen (Bachelor)": "",
        "Wirtschaftsingenieurwesen Bauwesen (Master)": ""
      },
      "geometry": {
        "coordinates": [30.328993, 59.951991],
        "type": "Point"
      },
      "id": "83f9718910d1eff126cba54d7e6ab4a3"
    },
    {
      "type": "Feature",
      "properties": {
        "description": "NTNU Trondheim"
      },
      "geometry": {
        "coordinates": [10.401779, 63.419345],
        "type": "Point"
      },
      "id": "857c3938d0d9aabd94a2cef5a4a7d948"
    },
    {
      "type": "Feature",
      "properties": {
        "description": "University of West Attica vorher: Technological Educational Institution (T. E. I.) of Athens",
        "Bauingenieurwesen (Bachelor)": "",
        "Bauingenieurwesen (Master)": "",
        "Bauingenieurwesen kooperativ (Bachelor)": ""
      },
      "geometry": {
        "coordinates": [23.73136, 37.981075],
        "type": "Point"
      },
      "id": "87ab6a20bd63966e1de65d4ea05a59e8"
    },
    {
      "type": "Feature",
      "properties": {
        "description": "University of Lincoln",
        "Wirtschaftsingenieurwesen Bauwesen (Bachelor)": "",
        "Wirtschaftsingenieurwesen Bauwesen (Master)": ""
      },
      "geometry": {
        "coordinates": [-0.724003, 53.09832],
        "type": "Point"
      },
      "id": "87ec3e8d90477a4b82a214de96818c3a"
    },
    {
      "type": "Feature",
      "properties": {
        "description": "Georgian Institute of Public Affairs",
        "Wirtschaftsingenieurwesen Bauwesen (Bachelor)": "",
        "Wirtschaftsingenieurwesen Bauwesen (Master)": ""
      },
      "geometry": {
        "coordinates": [43.880147, 43.136178],
        "type": "Point"
      },
      "id": "8b698af16df7015baea01d75d5459f8e"
    },
    {
      "type": "Feature",
      "properties": {
        "description": "Universite de Lorraine - IUT Nancy-Charlemange",
        "Wirtschaftsingenieurwesen Bauwesen (Bachelor)": ""
      },
      "geometry": {
        "coordinates": [6.181201, 48.689323],
        "type": "Point"
      },
      "id": "8b882a6d62ad5e77910cdadd246657fd"
    },
    {
      "type": "Feature",
      "properties": {
        "description": "University of Crete"
      },
      "geometry": {
        "coordinates": [25.102341, 35.317709],
        "type": "Point"
      },
      "id": "8c8bd8c2e524373cb67617e38cb68b0e"
    },
    {
      "type": "Feature",
      "properties": {
        "description": "University of Jaen",
        "Bauingenieurwesen (Bachelor)": "",
        "Bauingenieurwesen (Master)": "",
        "Bauingenieurwesen kooperativ (Bachelor)": "",
        "Wirtschaftsingenieurwesen Bauwesen (Bachelor)": "",
        "Wirtschaftsingenieurwesen Bauwesen (Master)": ""
      },
      "geometry": {
        "coordinates": [-3.83376, 37.566229],
        "type": "Point"
      },
      "id": "8c93597483514708e745bc6b574d2630"
    },
    {
      "type": "Feature",
      "properties": {
        "description": "Istanbul Technical University",
        "Bauingenieurwesen (Bachelor)": "",
        "Bauingenieurwesen (Master)": "",
        "Bauingenieurwesen kooperativ (Bachelor)": ""
      },
      "geometry": {
        "coordinates": [28.963537, 41.014205],
        "type": "Point"
      },
      "id": "8cff23cae5621b5a84d2e53a4360aacd"
    },
    {
      "type": "Feature",
      "properties": {
        "description": "Anand International College of Engineering"
      },
      "geometry": {
        "coordinates": [72.960988, 22.558762],
        "type": "Point"
      },
      "id": "8d7f6e74a55c68706eaded8ae04319de"
    },
    {
      "type": "Feature",
      "properties": {
        "description": "Ecole Nationale Superieure dArchitecture de Marseille"
      },
      "geometry": {
        "coordinates": [5.370564, 43.294925],
        "type": "Point"
      },
      "id": "8e41f716332dc08e0177eaf169f87152"
    },
    {
      "type": "Feature",
      "properties": {
        "description": "Marche Polytechnic University",
        "Bauingenieurwesen (Bachelor)": "",
        "Bauingenieurwesen (Master)": "",
        "Bauingenieurwesen kooperativ (Bachelor)": ""
      },
      "geometry": {
        "coordinates": [13.51288, 43.618054],
        "type": "Point"
      },
      "id": "8e553222a40c294d6c20ed45035a989e"
    },
    {
      "type": "Feature",
      "properties": {
        "description": "Xian University of Architecture and Technology",
        "Bauingenieurwesen (Bachelor)": "",
        "Bauingenieurwesen (Master)": "",
        "Bauingenieurwesen kooperativ (Bachelor)": ""
      },
      "geometry": {
        "coordinates": [108.992869, 34.225532],
        "type": "Point"
      },
      "id": "9279658e086d5b05b5225b9021e1409e"
    },
    {
      "type": "Feature",
      "properties": {
        "description": "Orel State University",
        "Bauingenieurwesen (Bachelor)": "",
        "Bauingenieurwesen (Master)": "",
        "Bauingenieurwesen kooperativ (Bachelor)": ""
      },
      "geometry": {
        "coordinates": [35.372463, 53.303218],
        "type": "Point"
      },
      "id": "944ad8c88f739a23d9ab8c6acf216b7c"
    },
    {
      "type": "Feature",
      "properties": {
        "description": "Artevelde University College Ghent"
      },
      "geometry": {
        "coordinates": [4.409149, 51.259551],
        "type": "Point"
      },
      "id": "95ceb7318c20355bdca30d1f068bfea5"
    },
    {
      "type": "Feature",
      "properties": {
        "description": "Szechenyi Istvan University"
      },
      "geometry": {
        "coordinates": [17.668855, 47.663546],
        "type": "Point"
      },
      "id": "95f8651d8548d04a6546ea89a410e1f2"
    },
    {
      "type": "Feature",
      "properties": {
        "description": "Kaunas University of Applied Engineering Sciences",
        "Bauingenieurwesen (Bachelor)": "",
        "Bauingenieurwesen (Master)": "",
        "Bauingenieurwesen kooperativ (Bachelor)": ""
      },
      "geometry": {
        "coordinates": [23.923655, 54.916886],
        "type": "Point"
      },
      "id": "9600bbaecda277b14614823258feac73"
    },
    {
      "type": "Feature",
      "properties": {
        "description": "Mekelle University",
        "Bauingenieurwesen (Bachelor)": "",
        "Bauingenieurwesen (Master)": "",
        "Bauingenieurwesen kooperativ (Bachelor)": "",
        "Wirtschaftsingenieurwesen Bauwesen (Bachelor)": "",
        "Wirtschaftsingenieurwesen Bauwesen (Master)": ""
      },
      "geometry": {
        "coordinates": [39.476334, 13.501025],
        "type": "Point"
      },
      "id": "9710470ea887e514688fadc1e9a91449"
    },
    {
      "type": "Feature",
      "properties": {
        "description": "Frederick University"
      },
      "geometry": {
        "coordinates": [33.81892, 35.325992],
        "type": "Point"
      },
      "id": "973dc0b0789c4ef676d8e68d2253b985"
    },
    {
      "type": "Feature",
      "properties": {
        "description": "Artevelde University College Ghent"
      },
      "geometry": {
        "coordinates": [3.724983, 51.048533],
        "type": "Point"
      },
      "id": "97d8c896f688e455281ba494123e5303"
    },
    {
      "type": "Feature",
      "properties": {
        "description": "Higher School of Communication of Tunis"
      },
      "geometry": {
        "coordinates": [10.168684, 36.806448],
        "type": "Point"
      },
      "id": "99b455000d65568488e59c147778710c"
    },
    {
      "type": "Feature",
      "properties": {
        "description": "Poznan University of Technology",
        "Bauingenieurwesen (Bachelor)": "",
        "Bauingenieurwesen (Master)": "",
        "Bauingenieurwesen kooperativ (Bachelor)": ""
      },
      "geometry": {
        "coordinates": [16.931961, 52.404427],
        "type": "Point"
      },
      "id": "99c25e2d238e47c119122a14744f159d"
    },
    {
      "type": "Feature",
      "properties": {
        "description": "Voronezh State University of Architecture and Civil Engineering",
        "Bauingenieurwesen (Bachelor)": "",
        "Bauingenieurwesen (Master)": "",
        "Bauingenieurwesen kooperativ (Bachelor)": "",
        "Wirtschaftsingenieurwesen Bauwesen (Bachelor)": "",
        "Wirtschaftsingenieurwesen Bauwesen (Master)": ""
      },
      "geometry": {
        "coordinates": [39.22619, 51.619914],
        "type": "Point"
      },
      "id": "9a1d822e6411c0a335ae71471fe8c05d"
    },
    {
      "type": "Feature",
      "properties": {
        "description": "University of Rome \"Tor Vergata\"",
        "Wirtschaftsingenieurwesen Bauwesen (Bachelor)": "",
        "Wirtschaftsingenieurwesen Bauwesen (Master)": ""
      },
      "geometry": {
        "coordinates": [12.596986, 41.849462],
        "type": "Point"
      },
      "id": "9c3f01683500227ef24e01e62597777d"
    },
    {
      "type": "Feature",
      "properties": {
        "description": "Brno University of Technology",
        "Bauingenieurwesen (Bachelor)": "",
        "Bauingenieurwesen (Master)": "",
        "Bauingenieurwesen kooperativ (Bachelor)": ""
      },
      "geometry": {
        "coordinates": [16.611536, 49.190677],
        "type": "Point"
      },
      "id": "9cc0c1430fe77372f1018e6906fddea7"
    },
    {
      "type": "Feature",
      "properties": {
        "description": "Tomsk State University of Architecture and Building",
        "Bauingenieurwesen (Bachelor)": "",
        "Bauingenieurwesen (Master)": "",
        "Bauingenieurwesen kooperativ (Bachelor)": "",
        "Wirtschaftsingenieurwesen Bauwesen (Bachelor)": "",
        "Wirtschaftsingenieurwesen Bauwesen (Master)": ""
      },
      "geometry": {
        "coordinates": [85.050923, 56.551993],
        "type": "Point"
      },
      "id": "a06b7675b2e6c4a2a332a8e959541a23"
    },
    {
      "type": "Feature",
      "properties": {
        "description": "University of Brescia",
        "Bauingenieurwesen (Bachelor)": "",
        "Bauingenieurwesen (Master)": "",
        "Bauingenieurwesen kooperativ (Bachelor)": ""
      },
      "geometry": {
        "coordinates": [10.233427, 45.564001],
        "type": "Point"
      },
      "id": "a17778822bb78af964e579ad2f9d5fa7"
    },
    {
      "type": "Feature",
      "properties": {
        "description": "German-Jordanian University",
        "Bauingenieurwesen (Bachelor)": "",
        "Bauingenieurwesen (Master)": "",
        "Bauingenieurwesen kooperativ (Bachelor)": "",
        "Wirtschaftsingenieurwesen Bauwesen (Bachelor)": "",
        "Wirtschaftsingenieurwesen Bauwesen (Master)": ""
      },
      "geometry": {
        "coordinates": [35.554764, 30.656725],
        "type": "Point"
      },
      "id": "a1f82269a0f30f616211a6089f292d1b"
    },
    {
      "type": "Feature",
      "properties": {
        "description": "University of Coimbra"
      },
      "geometry": {
        "coordinates": [-8.420944, 40.193437],
        "type": "Point"
      },
      "id": "a232f13768fef8cd5fef7b0b179f19b2"
    },
    {
      "type": "Feature",
      "properties": {
        "description": "HEIG-VD Haute Ecole de Gestion du Canton de Vaud",
        "Wirtschaftsingenieurwesen Bauwesen (Bachelor)": "",
        "Wirtschaftsingenieurwesen Bauwesen (Master)": ""
      },
      "geometry": {
        "coordinates": [6.652973, 46.529975],
        "type": "Point"
      },
      "id": "a4ba0dff4384488a4dd2bb1f77006e95"
    },
    {
      "type": "Feature",
      "properties": {
        "description": "IUT de l'Université Paris Descartes",
        "Wirtschaftsingenieurwesen Bauwesen (Bachelor)": ""
      },
      "geometry": {
        "coordinates": [2.331681, 48.855374],
        "type": "Point"
      },
      "id": "a7c827322525911ea60750d90618a71f"
    },
    {
      "type": "Feature",
      "properties": {
        "description": "St. Petersburg State University of Architecture and Civil Engineering"
      },
      "geometry": {
        "coordinates": [30.309724, 59.937806],
        "type": "Point"
      },
      "id": "a9ecfe86d68a2b76f65e0bfd696b4452"
    },
    {
      "type": "Feature",
      "properties": {
        "description": "Universite dArtois"
      },
      "geometry": {
        "coordinates": [2.793591, 50.283513],
        "type": "Point"
      },
      "id": "aaa689f15e9234808b032cd4f15a7a64"
    },
    {
      "type": "Feature",
      "properties": {
        "description": "University of Lincoln"
      },
      "geometry": {
        "coordinates": [-0.553372, 53.228948],
        "type": "Point"
      },
      "id": "ab171f216fea6ddd7f416174b49c3a28"
    },
    {
      "type": "Feature",
      "properties": {
        "description": "University of Economics in Katowice",
        "Wirtschaftsingenieurwesen Bauwesen (Bachelor)": "",
        "Wirtschaftsingenieurwesen Bauwesen (Master)": ""
      },
      "geometry": {
        "coordinates": [19.031758, 50.261684],
        "type": "Point"
      },
      "id": "ad184918480cf23ada1cff1362f186fd"
    },
    {
      "type": "Feature",
      "properties": {
        "description": "The Federal University of Santa Maria",
        "Bauingenieurwesen (Bachelor)": "",
        "Bauingenieurwesen (Master)": "",
        "Bauingenieurwesen kooperativ (Bachelor)": "",
        "Wirtschaftsingenieurwesen Bauwesen (Bachelor)": "",
        "Wirtschaftsingenieurwesen Bauwesen (Master)": ""
      },
      "geometry": {
        "coordinates": [-53.824905, -29.683173],
        "type": "Point"
      },
      "id": "ae4f69f329670193716b68f8e58da68a"
    },
    {
      "type": "Feature",
      "properties": {
        "description": "Changzhou University of China",
        "Bauingenieurwesen (Bachelor)": "",
        "Bauingenieurwesen (Master)": "",
        "Bauingenieurwesen kooperativ (Bachelor)": ""
      },
      "geometry": {
        "coordinates": [119.962604, 31.815508],
        "type": "Point"
      },
      "id": "aff41187c966394d5ce4182567cf121f"
    },
    {
      "type": "Feature",
      "properties": {
        "description": "Technical University of Liberec",
        "Bauingenieurwesen (Bachelor)": "",
        "Bauingenieurwesen (Master)": "",
        "Bauingenieurwesen kooperativ (Bachelor)": ""
      },
      "geometry": {
        "coordinates": [15.036838, 50.765608],
        "type": "Point"
      },
      "id": "b1a1ed1f31187716ee54aee2919f8283"
    },
    {
      "type": "Feature",
      "properties": {
        "description": "Opole University of Technology",
        "Wirtschaftsingenieurwesen Bauwesen (Bachelor)": "",
        "Wirtschaftsingenieurwesen Bauwesen (Master)": ""
      },
      "geometry": {
        "coordinates": [17.936063, 50.676728],
        "type": "Point"
      },
      "id": "b340320d0f58aa1aadb1443d45b39c63"
    },
    {
      "type": "Feature",
      "properties": {
        "description": "Ecole Nationale Superieure dArchitecture Paris Val de Seine"
      },
      "geometry": {
        "coordinates": [2.361813, 48.858074],
        "type": "Point"
      },
      "id": "b3cbbf0471efa185d9b051f9fda1a4d4"
    },
    {
      "type": "Feature",
      "properties": {
        "description": "Ho Chi Minh City University of Transport (UT_HCMC)"
      },
      "geometry": {
        "coordinates": [10.757607, 34.740873],
        "type": "Point"
      },
      "id": "b49d7f1ffeb8715916a6f461e5809cf4"
    },
    {
      "type": "Feature",
      "properties": {
        "description": "Mordovian State University",
        "Bauingenieurwesen (Bachelor)": "",
        "Bauingenieurwesen (Master)": "",
        "Bauingenieurwesen kooperativ (Bachelor)": "",
        "Wirtschaftsingenieurwesen Bauwesen (Bachelor)": "",
        "Wirtschaftsingenieurwesen Bauwesen (Master)": ""
      },
      "geometry": {
        "coordinates": [45.179752, 54.180278],
        "type": "Point"
      },
      "id": "b526ec7fa9bbff8c64190856d861bd6e"
    },
    {
      "type": "Feature",
      "properties": {
        "description": "Universite Grenoble Alpes (UGA) (vorher IUT2 Grenoble- Universite Pierre Mendes France Grenoble 2(UPMF))"
      },
      "geometry": {
        "coordinates": [5.768322, 45.191802],
        "type": "Point"
      },
      "id": "b6302fb010a0d80b307e119634b1ca60"
    },
    {
      "type": "Feature",
      "properties": {
        "description": "Otago Polytechnic",
        "Bauingenieurwesen (Bachelor)": "",
        "Bauingenieurwesen (Master)": "",
        "Bauingenieurwesen kooperativ (Bachelor)": "",
        "Wirtschaftsingenieurwesen Bauwesen (Bachelor)": "",
        "Wirtschaftsingenieurwesen Bauwesen (Master)": ""
      },
      "geometry": {
        "coordinates": [170.496494, -45.887647],
        "type": "Point"
      },
      "id": "b928847e0f8dbbe50b30edf06113a3a5"
    },
    {
      "type": "Feature",
      "properties": {
        "description": "Penza State University of Architectureand Civil Engineering",
        "Bauingenieurwesen (Bachelor)": "",
        "Bauingenieurwesen (Master)": "",
        "Bauingenieurwesen kooperativ (Bachelor)": ""
      },
      "geometry": {
        "coordinates": [45.012847, 53.211928],
        "type": "Point"
      },
      "id": "bb74d8b3131d34b81bf4c231ddc7eb16"
    },
    {
      "type": "Feature",
      "properties": {
        "description": "Transilvania University of Brasov"
      },
      "geometry": {
        "coordinates": [25.613322, 45.669867],
        "type": "Point"
      },
      "id": "bf0ddcd179eb6377e8a2460058c59c43"
    },
    {
      "type": "Feature",
      "properties": {
        "description": "Vilnus Gediminas Technical University",
        "Bauingenieurwesen (Bachelor)": "",
        "Bauingenieurwesen (Master)": "",
        "Bauingenieurwesen kooperativ (Bachelor)": "",
        "Wirtschaftsingenieurwesen Bauwesen (Bachelor)": "",
        "Wirtschaftsingenieurwesen Bauwesen (Master)": ""
      },
      "geometry": {
        "coordinates": [25.300315, 54.681212],
        "type": "Point"
      },
      "id": "bfd05d75397fb213e72e6c8f06d56c14"
    },
    {
      "type": "Feature",
      "properties": {
        "description": "University of Granada"
      },
      "geometry": {
        "coordinates": [-3.609586, 37.176188],
        "type": "Point"
      },
      "id": "c31371506cb32c22df92d651454360b3"
    },
    {
      "type": "Feature",
      "properties": {
        "description": "Ukranian Academy of Printing"
      },
      "geometry": {
        "coordinates": [24.11714, 49.816001],
        "type": "Point"
      },
      "id": "c43a37d290c3b34f605a910754b50b1a"
    },
    {
      "type": "Feature",
      "properties": {
        "description": "University of Management and Technology (UMT)",
        "Bauingenieurwesen (Bachelor)": "",
        "Bauingenieurwesen (Master)": "",
        "Bauingenieurwesen kooperativ (Bachelor)": "",
        "Wirtschaftsingenieurwesen Bauwesen (Bachelor)": "",
        "Wirtschaftsingenieurwesen Bauwesen (Master)": ""
      },
      "geometry": {
        "coordinates": [74.261999, 31.503971],
        "type": "Point"
      },
      "id": "c728789980a7a9acacb4e3acdf039c2d"
    },
    {
      "type": "Feature",
      "properties": {
        "description": "Zhejiang University of Science and Technology",
        "Wirtschaftsingenieurwesen Bauwesen (Bachelor)": ""
      },
      "geometry": {
        "coordinates": [118.877835, 28.974559],
        "type": "Point"
      },
      "id": "cb7d3c8330c3c399e0e4e837fce42cee"
    },
    {
      "type": "Feature",
      "properties": {
        "description": "University of Sassari"
      },
      "geometry": {
        "coordinates": [8.556365, 40.732348],
        "type": "Point"
      },
      "id": "cc6febf92c2c51712d84f2efbecf91b4"
    },
    {
      "type": "Feature",
      "properties": {
        "description": "Universite Paris Quest Naterre La Defense (Universite Paris 10)"
      },
      "geometry": {
        "coordinates": [2.350926, 48.856027],
        "type": "Point"
      },
      "id": "cd4b025fe140d6f5c1bdb820d38eae71"
    },
    {
      "type": "Feature",
      "properties": {
        "description": "Universite Claude Bernard - Lyon 1",
        "Wirtschaftsingenieurwesen Bauwesen (Bachelor)": "",
        "Wirtschaftsingenieurwesen Bauwesen (Master)": ""
      },
      "geometry": {
        "coordinates": [4.871232, 45.783169],
        "type": "Point"
      },
      "id": "ceaeb6b7e677a8011970fcce2087d7c9"
    },
    {
      "type": "Feature",
      "properties": {
        "description": "Fachhochschule Nordwestschweiz",
        "Bauingenieurwesen (Bachelor)": "",
        "Bauingenieurwesen (Master)": "",
        "Bauingenieurwesen kooperativ (Bachelor)": "",
        "Wirtschaftsingenieurwesen Bauwesen (Bachelor)": "",
        "Wirtschaftsingenieurwesen Bauwesen (Master)": ""
      },
      "geometry": {
        "coordinates": [7.911182, 47.346487],
        "type": "Point"
      },
      "id": "d04e2b6c682aa51a96270358719b592f"
    },
    {
      "type": "Feature",
      "properties": {
        "description": "Institut National des Sciences Appliquees de Strasbourg (INSA)"
      },
      "geometry": {
        "coordinates": [7.731249, 48.572673],
        "type": "Point"
      },
      "id": "d2f04fad83fe431985301d3e0a0a16d2"
    },
    {
      "type": "Feature",
      "properties": {
        "description": "Laurea University of Applied Sciences",
        "Wirtschaftsingenieurwesen Bauwesen (Bachelor)": "",
        "Wirtschaftsingenieurwesen Bauwesen (Master)": ""
      },
      "geometry": {
        "coordinates": [24.939153, 60.177328],
        "type": "Point"
      },
      "id": "d5f888ffcfca841c41957adfcd9b1ce5"
    },
    {
      "type": "Feature",
      "properties": {
        "description": "Oxford Brookes University"
      },
      "geometry": {
        "coordinates": [-1.224434, 51.755204],
        "type": "Point"
      },
      "id": "dc81f5da64014fc4fa60f98447a88087"
    },
    {
      "type": "Feature",
      "properties": {
        "description": "Satakunta University of Applied Sciences",
        "Wirtschaftsingenieurwesen Bauwesen (Bachelor)": ""
      },
      "geometry": {
        "coordinates": [21.653716, 61.708742],
        "type": "Point"
      },
      "id": "dedd2149d7c61ab6950c542c824fddb4"
    },
    {
      "type": "Feature",
      "properties": {
        "description": "National School of Engineering Sfax"
      },
      "geometry": {
        "coordinates": [10.748582, 34.730278],
        "type": "Point"
      },
      "id": "e05da36c69ead9690ca8a7f81e4cb74c"
    },
    {
      "type": "Feature",
      "properties": {
        "description": "Groupe ESAIP"
      },
      "geometry": {
        "coordinates": [-0.559637, 47.468207],
        "type": "Point"
      },
      "id": "e47fc9e91321345001db3e658fa20e62"
    },
    {
      "type": "Feature",
      "properties": {
        "description": "École Nationale Supérieure d'Architecture de Nancy"
      },
      "geometry": {
        "coordinates": [6.192868, 48.695899],
        "type": "Point"
      },
      "id": "e6f3def80554de4c83c376563a3f15b9"
    },
    {
      "type": "Feature",
      "properties": {
        "description": "Zurich University of Applied Sciences (ZHAW)"
      },
      "geometry": {
        "coordinates": [8.529166, 47.378984],
        "type": "Point"
      },
      "id": "e74fc1cdc493a88a8b74cc134706943b"
    },
    {
      "type": "Feature",
      "properties": {
        "description": "Flatov South- Russian State Polytechnic University (NPI), Novocherkassk"
      },
      "geometry": {
        "coordinates": [36.178146, 51.728657],
        "type": "Point"
      },
      "id": "ea66d8ebc40352eda3321cf7532bd84b"
    },
    {
      "type": "Feature",
      "properties": {
        "description": "East-Siberian State University of Technology and Management",
        "Bauingenieurwesen (Bachelor)": "",
        "Bauingenieurwesen (Master)": "",
        "Bauingenieurwesen kooperativ (Bachelor)": "",
        "Wirtschaftsingenieurwesen Bauwesen (Bachelor)": "",
        "Wirtschaftsingenieurwesen Bauwesen (Master)": ""
      },
      "geometry": {
        "coordinates": [108.36955, 51.349723],
        "type": "Point"
      },
      "id": "ec97119c9f280a0890c816afe9ba2793"
    },
    {
      "type": "Feature",
      "properties": {
        "description": "\"G. dAnnunzio\" University of Chieti-Pescara"
      },
      "geometry": {
        "coordinates": [14.224421, 42.452299],
        "type": "Point"
      },
      "id": "ed31ffbe98c854d92a9c4062639f9096"
    },
    {
      "type": "Feature",
      "properties": {
        "description": "Tishreen University",
        "Bauingenieurwesen (Bachelor)": "",
        "Bauingenieurwesen (Master)": "",
        "Bauingenieurwesen kooperativ (Bachelor)": ""
      },
      "geometry": {
        "coordinates": [35.760019, 35.547494],
        "type": "Point"
      },
      "id": "efb00ba1cf11022d722679934d97dd4f"
    },
    {
      "type": "Feature",
      "properties": {
        "description": "Universite dAngers",
        "Wirtschaftsingenieurwesen Bauwesen (Bachelor)": "",
        "Wirtschaftsingenieurwesen Bauwesen (Master)": ""
      },
      "geometry": {
        "coordinates": [-0.554723, 47.457478],
        "type": "Point"
      },
      "id": "f2f7c43608c8186dd20a96f378340c4c"
    },
    {
      "type": "Feature",
      "properties": {
        "description": "University of Salamanca"
      },
      "geometry": {
        "coordinates": [-5.667617, 40.967757],
        "type": "Point"
      },
      "id": "f3c8542780e7167cd99950a6bea6bd89"
    },
    {
      "type": "Feature",
      "properties": {
        "description": "Ton Duc Thang University",
        "Bauingenieurwesen (Bachelor)": "",
        "Bauingenieurwesen (Master)": "",
        "Bauingenieurwesen kooperativ (Bachelor)": "",
        "Wirtschaftsingenieurwesen Bauwesen (Bachelor)": "",
        "Wirtschaftsingenieurwesen Bauwesen (Master)": ""
      },
      "geometry": {
        "coordinates": [106.699316, 10.74813],
        "type": "Point"
      },
      "id": "f43a4ce586aa9ee7da2103971c64b14e"
    },
    {
      "type": "Feature",
      "properties": {
        "description": "Wroclaw University of Science and Technology",
        "Bauingenieurwesen (Bachelor)": "",
        "Bauingenieurwesen (Master)": "",
        "Bauingenieurwesen kooperativ (Bachelor)": ""
      },
      "geometry": {
        "coordinates": [17.059387, 51.108683],
        "type": "Point"
      },
      "id": "f56f000ee3042b09c21b3909228c5482"
    },
    {
      "type": "Feature",
      "properties": {
        "description": "North China University of Water Resources and Electric Power (NCWU)",
        "Bauingenieurwesen (Bachelor)": "",
        "Bauingenieurwesen (Master)": "",
        "Bauingenieurwesen kooperativ (Bachelor)": ""
      },
      "geometry": {
        "coordinates": [113.694725, 34.752793],
        "type": "Point"
      },
      "id": "f5b8b0497bb7b54cab0625ac9ede6080"
    },
    {
      "type": "Feature",
      "properties": {
        "description": "University of Hradec Kralove"
      },
      "geometry": {
        "coordinates": [15.838159, 50.207983],
        "type": "Point"
      },
      "id": "f66717fdd2fe6f7eb7e1a4465d39be71"
    },
    {
      "type": "Feature",
      "properties": {
        "description": "Technical University of Civil Engineering Bucharest",
        "Bauingenieurwesen (Bachelor)": "",
        "Bauingenieurwesen (Master)": "",
        "Bauingenieurwesen kooperativ (Bachelor)": ""
      },
      "geometry": {
        "coordinates": [26.105591, 44.409478],
        "type": "Point"
      },
      "id": "f6fdd9b263172df9cfe6753ab392fbec"
    },
    {
      "type": "Feature",
      "properties": {
        "description": "Mykolas Romeris University"
      },
      "geometry": {
        "coordinates": [25.276368, 54.690441],
        "type": "Point"
      },
      "id": "f893ad4dd46760e4eb650ec1621ed76a"
    },
    {
      "type": "Feature",
      "properties": {
        "description": "Haute Ecole EPHEC",
        "Wirtschaftsingenieurwesen Bauwesen (Bachelor)": ""
      },
      "geometry": {
        "coordinates": [4.448467, 50.850027],
        "type": "Point"
      },
      "id": "fa7a29edff95a9ea480ed89224c8414f"
    },
    {
      "type": "Feature",
      "properties": {
        "description": "Don Technical State University",
        "Bauingenieurwesen (Bachelor)": "",
        "Bauingenieurwesen (Master)": "",
        "Bauingenieurwesen kooperativ (Bachelor)": "",
        "Wirtschaftsingenieurwesen Bauwesen (Bachelor)": "",
        "Wirtschaftsingenieurwesen Bauwesen (Master)": ""
      },
      "geometry": {
        "coordinates": [42.197532, 56.585939],
        "type": "Point"
      },
      "id": "fd4c388649be3f64b54692df0877a82a"
    },
    {
      "type": "Feature",
      "properties": {
        "description": "IMT Lille Douai",
        "Wirtschaftsingenieurwesen Bauwesen (Bachelor)": "",
        "Wirtschaftsingenieurwesen Bauwesen (Master)": ""
      },
      "geometry": {
        "coordinates": [3.109985, 50.625458],
        "type": "Point"
      },
      "id": "ff5e96f09a2b6bc0a50201559f5eac53"
    }
  ],
  "type": "FeatureCollection"
}
